ltc31-assignment_04.qmd
…
slice is a dplyr function that allows you to index rows by their integer locations. Show how to use the seq function and slice to get every fifth row in the penguins data set.

library(dplyr)
library(palmerpenguins)

Attaching package: 'palmerpenguins'

The following objects are masked from 'package:datasets':

    penguins, penguins_raw

penguins

# A tibble: 344 × 8
   species island    bill_length_mm bill_depth_mm flipper_length_mm body_mass_g
   <fct>   <fct>              <dbl>         <dbl>             <int>       <int>
 1 Adelie  Torgersen           39.1          18.7               181        3750
 2 Adelie  Torgersen           39.5          17.4               186        3800
 3 Adelie  Torgersen           40.3          18                 195        3250
 4 Adelie  Torgersen           NA            NA                  NA          NA
 5 Adelie  Torgersen           36.7          19.3               193        3450
 6 Adelie  Torgersen           39.3          20.6               190        3650
 7 Adelie  Torgersen           38.9          17.8               181        3625
 8 Adelie  Torgersen           39.2          19.6               195        4675
 9 Adelie  Torgersen           34.1          18.1               193        3475
10 Adelie  Torgersen           42            20.2               190        4250
# ℹ 334 more rows
# ℹ 2 more variables: sex <fct>, year <int>

#This dataset has 344 rows.

penguins |>
  slice(seq(1, n(), by = 5))

# A tibble: 69 × 8
   species island    bill_length_mm bill_depth_mm flipper_length_mm body_mass_g
   <fct>   <fct>              <dbl>         <dbl>             <int>       <int>
 1 Adelie  Torgersen           39.1          18.7               181        3750
 2 Adelie  Torgersen           39.3          20.6               190        3650
 3 Adelie  Torgersen           37.8          17.1               186        3300
 4 Adelie  Torgersen           36.6          17.8               185        3700
 5 Adelie  Biscoe              37.8          18.3               174        3400
 6 Adelie  Biscoe              35.3          18.9               187        3800
 7 Adelie  Dream               39.5          16.7               178        3250
 8 Adelie  Dream               39.2          21.1               196        4150
 9 Adelie  Dream               36.5          18                 182        3150
10 Adelie  Dream               39.6          18.8               190        4600
# ℹ 59 more rows
# ℹ 2 more variables: sex <fct>, year <int>
…
